<?xml version="1.0" encoding="iso-8859-1"?>
<!-- Generator: Adobe Illustrator 19.0.0, SVG Export Plug-In . SVG Version: 6.00 Build 0)  -->
<svg version="1.1" id="Layer_1" xmlns="http://www.w3.org/2000/svg" xmlns:xlink="http://www.w3.org/1999/xlink" x="0px" y="0px"
	 viewBox="0 0 24 24" style="enable-background:new 0 0 24 24;" xml:space="preserve">
<g>
	<g>
		<path d="M7.026,19h2c0.276,0,0.5-0.224,0.5-0.5v-2c0-0.276-0.224-0.5-0.5-0.5h-2c-0.276,0-0.5,0.224-0.5,0.5v2
			C6.526,18.776,6.75,19,7.026,19z M7.526,17h1v1h-1V17z M7.026,15h2c0.276,0,0.5-0.224,0.5-0.5v-2c0-0.276-0.224-0.5-0.5-0.5h-2
			c-0.276,0-0.5,0.224-0.5,0.5v2C6.526,14.776,6.75,15,7.026,15z M7.526,13h1v1h-1V13z M7.026,11h2c0.276,0,0.5-0.224,0.5-0.5v-2
			c0-0.276-0.224-0.5-0.5-0.5h-2c-0.276,0-0.5,0.224-0.5,0.5v2C6.526,10.776,6.75,11,7.026,11z M7.526,9h1v1h-1V9z M7.026,7h2
			c0.276,0,0.5-0.224,0.5-0.5v-2c0-0.276-0.224-0.5-0.5-0.5h-2c-0.276,0-0.5,0.224-0.5,0.5v2C6.526,6.776,6.75,7,7.026,7z M7.526,5
			h1v1h-1V5z M11.026,7h2c0.276,0,0.5-0.224,0.5-0.5v-2c0-0.276-0.224-0.5-0.5-0.5h-2c-0.276,0-0.5,0.224-0.5,0.5v2
			C10.526,6.776,10.75,7,11.026,7z M11.526,5h1v1h-1V5z M15.026,11h2c0.276,0,0.5-0.224,0.5-0.5v-2c0-0.276-0.224-0.5-0.5-0.5h-2
			c-0.276,0-0.5,0.224-0.5,0.5v2C14.526,10.776,14.75,11,15.026,11z M15.526,9h1v1h-1V9z M15.026,7h2c0.276,0,0.5-0.224,0.5-0.5v-2
			c0-0.276-0.224-0.5-0.5-0.5h-2c-0.276,0-0.5,0.224-0.5,0.5v2C14.526,6.776,14.75,7,15.026,7z M15.526,5h1v1h-1V5z M20.974,23
			h-1.448V2.5c0-0.276-0.224-0.5-0.5-0.5h-1.5V0.5c0-0.276-0.224-0.5-0.5-0.5h-10c-0.276,0-0.5,0.224-0.5,0.5V2h-1.5
			c-0.276,0-0.5,0.224-0.5,0.5V23h-1.5c-0.276,0-0.5,0.224-0.5,0.5S2.75,24,3.026,24h6c0.276,0,0.5-0.224,0.5-0.5V21h5v2.5
			c0,0.276,0.224,0.5,0.5,0.5h5.948c0.276,0,0.5-0.224,0.5-0.5S21.25,23,20.974,23z M7.526,1h9v1h-9V1z M18.526,23h-3v-2.5
			c0-0.276-0.224-0.5-0.5-0.5h-6c-0.276,0-0.5,0.224-0.5,0.5V23h-3V3h13V23z M15.026,15h2c0.276,0,0.5-0.224,0.5-0.5v-2
			c0-0.276-0.224-0.5-0.5-0.5h-2c-0.276,0-0.5,0.224-0.5,0.5v2C14.526,14.776,14.75,15,15.026,15z M15.526,13h1v1h-1V13z M11.026,19
			h2c0.276,0,0.5-0.224,0.5-0.5v-2c0-0.276-0.224-0.5-0.5-0.5h-2c-0.276,0-0.5,0.224-0.5,0.5v2C10.526,18.776,10.75,19,11.026,19z
			 M11.526,17h1v1h-1V17z M11.026,15h2c0.276,0,0.5-0.224,0.5-0.5v-2c0-0.276-0.224-0.5-0.5-0.5h-2c-0.276,0-0.5,0.224-0.5,0.5v2
			C10.526,14.776,10.75,15,11.026,15z M11.526,13h1v1h-1V13z M15.026,19h2c0.276,0,0.5-0.224,0.5-0.5v-2c0-0.276-0.224-0.5-0.5-0.5
			h-2c-0.276,0-0.5,0.224-0.5,0.5v2C14.526,18.776,14.75,19,15.026,19z M15.526,17h1v1h-1V17z M11.026,11h2
			c0.276,0,0.5-0.224,0.5-0.5v-2c0-0.276-0.224-0.5-0.5-0.5h-2c-0.276,0-0.5,0.224-0.5,0.5v2C10.526,10.776,10.75,11,11.026,11z
			 M11.526,9h1v1h-1V9z"/>
	</g>
</g>
</svg>
