<?xml version="1.0" encoding="iso-8859-1"?>
<!-- Generator: Adobe Illustrator 19.0.0, SVG Export Plug-In . SVG Version: 6.00 Build 0)  -->
<svg version="1.1" id="Layer_1" xmlns="http://www.w3.org/2000/svg" xmlns:xlink="http://www.w3.org/1999/xlink" x="0px" y="0px"
	 fill="#FFFFFF" viewBox="0 0 24 24" style="enable-background:new 0 0 24 24;" xml:space="preserve">
<path d="M20,12h-2.457l0.417-5H18c0.827,0,1.5-0.673,1.5-1.5v-4C19.5,0.673,18.827,0,18,0H6C5.173,0,4.5,0.673,4.5,1.5v4
	C4.5,6.327,5.173,7,6,7h0.04l0.417,5H4c-0.276,0-0.5,0.224-0.5,0.5v2C3.5,14.776,3.724,15,4,15h0.5v8.5C4.5,23.776,4.724,24,5,24h2
	c0.276,0,0.5-0.224,0.5-0.5V19h9v4.5c0,0.276,0.224,0.5,0.5,0.5h2c0.276,0,0.5-0.224,0.5-0.5V15H20c0.276,0,0.5-0.224,0.5-0.5v-2
	C20.5,12.224,20.276,12,20,12z M16.54,12h-0.997l0.417-5h0.997L16.54,12z M13.5,12V7h1.457l-0.417,5H13.5z M9.46,12L9.043,7H10.5v5
	H9.46z M11.5,7h1v5h-1V7z M5.5,5.5v-4C5.5,1.224,5.725,1,6,1h12c0.275,0,0.5,0.224,0.5,0.5v4C18.5,5.776,18.275,6,18,6h-0.5h-2H13
	h-2H8.5h-2H6C5.725,6,5.5,5.776,5.5,5.5z M7.043,7H8.04l0.417,5H7.46L7.043,7z M6.5,23h-1v-8h1V23z M7.5,18v-3h9v3H7.5z M18.5,23h-1
	v-8h1V23z M19.5,14H19h-2H7H5H4.5v-1H7h2h2h2h2h2h2.5V14z"/>
</svg>
