<?xml version="1.0" encoding="iso-8859-1"?>
<!-- Generator: Adobe Illustrator 19.0.0, SVG Export Plug-In . SVG Version: 6.00 Build 0)  -->
<svg version="1.1" id="Layer_1" xmlns="http://www.w3.org/2000/svg" xmlns:xlink="http://www.w3.org/1999/xlink" x="0px" y="0px"
	 fill="#FFFFFF" viewBox="0 0 24 24" style="enable-background:new 0 0 24 24;" xml:space="preserve">
<g>
	<g>
		<path d="M9.691,2.609l-5.68-2.435C3.741,0.059,3.454,0,3.159,0C1.969,0,1,0.969,1,2.159v17.247c0,0.865,0.514,1.644,1.309,1.985
			l5.68,2.435C8.259,23.941,8.546,24,8.841,24C10.031,24,11,23.031,11,21.841V4.594C11,3.729,10.486,2.95,9.691,2.609z M9,13.5
			C9,13.776,8.776,14,8.5,14S8,13.776,8,13.5v-2C8,11.224,8.224,11,8.5,11S9,11.224,9,11.5V13.5z M22.973,10.368
			c-0.005-0.018-0.004-0.038-0.011-0.056c-0.026-0.065-0.065-0.122-0.115-0.17l-2.994-2.994c-0.195-0.195-0.512-0.195-0.707,0
			s-0.195,0.512,0,0.707L21.291,10H12.5c-0.276,0-0.5,0.224-0.5,0.5s0.224,0.5,0.5,0.5h8.793l-2.147,2.147
			c-0.195,0.195-0.195,0.512,0,0.707C19.244,13.951,19.372,14,19.5,14s0.256-0.049,0.353-0.145l3-3
			c0.014-0.014,0.019-0.032,0.031-0.046c0.029-0.036,0.059-0.073,0.077-0.117c0.018-0.043,0.022-0.089,0.027-0.134
			C22.991,10.538,23,10.52,23,10.5C23,10.453,22.985,10.411,22.973,10.368z M17.5,12h-5c-0.276,0-0.5,0.224-0.5,0.5v8
			c0,0.276,0.224,0.5,0.5,0.5h3c1.378,0,2.5-1.122,2.5-2.5v-6C18,12.224,17.776,12,17.5,12z M12,8.5C12,8.776,12.224,9,12.5,9h5
			C17.776,9,18,8.776,18,8.5v-6C18,1.122,16.878,0,15.5,0H8.577C8.34,0,8.135,0.167,8.087,0.399s0.075,0.467,0.293,0.56l1.704,0.73
			C11.248,2.189,12,3.329,12,4.594V8.5z"/>
	</g>
</g>
</svg>
