<?xml version="1.0" encoding="iso-8859-1"?>
<!-- Generator: Adobe Illustrator 19.0.0, SVG Export Plug-In . SVG Version: 6.00 Build 0)  -->
<svg version="1.1" id="Layer_1" xmlns="http://www.w3.org/2000/svg" xmlns:xlink="http://www.w3.org/1999/xlink" x="0px" y="0px"
	 fill="#FFFFFF" viewBox="0 0 24 24" style="enable-background:new 0 0 24 24;" xml:space="preserve">
<g>
	<g>
		<path d="M7.335,24.005c-1.427,0-4.16-0.132-5.717-1.669C0.876,21.603,0.5,20.649,0.5,19.5c0-3.931,4.539-5.249,7.584-5.466
			c-0.428-0.827-0.67-1.975-0.048-3.091C5.719,10.679,2.5,9.441,2.5,6c0-3.897,3.349-6,6.5-6c3.235,0,6.5,1.546,6.5,5
			c0,2.25-1.639,3.875-2.835,5.062C12.146,10.576,11.5,11.217,11.5,11.5c0.01,0.199,0.723,0.719,1.194,1.063
			C14.21,13.667,16.5,15.335,16.5,18.5c0,5.351-8.415,5.5-8.5,5.5l-0.215,0.002C7.657,24.003,7.506,24.005,7.335,24.005z M9,1
			C6.789,1,3.5,2.332,3.5,6c0,3.955,5.275,4,5.5,4c0.202,0,0.385,0.122,0.462,0.309s0.034,0.402-0.108,0.545
			c-1.538,1.538-0.046,3.241,0.019,3.313c0.132,0.146,0.165,0.357,0.084,0.538C9.376,14.884,9.197,15,9,15
			c-0.075,0-7.5,0.051-7.5,4.5c0,0.884,0.269,1.579,0.82,2.125c1.444,1.427,4.456,1.391,5.453,1.377L8,23c0.075,0,7.5-0.193,7.5-4.5
			c0-2.656-1.962-4.085-3.395-5.129c-0.932-0.679-1.605-1.17-1.605-1.871c0-0.7,0.645-1.339,1.461-2.148
			C13.093,8.23,14.5,6.834,14.5,5C14.5,1.842,11.043,1,9,1z"/>
	</g>
	<g>
		<path d="M9,23c-2.537,0-5.5-1.047-5.5-4c0-2.947,3.426-5,6.5-5c0.09,0,0.178,0.024,0.255,0.07C10.689,14.328,14.5,16.658,14.5,19
			C14.5,21.393,11.656,23,9,23z M9.863,15.001C7.303,15.06,4.5,16.751,4.5,19c0,2.214,2.424,3,4.5,3c2.124,0,4.5-1.283,4.5-3
			C13.5,17.544,10.979,15.688,9.863,15.001z"/>
	</g>
	<g>
		<path d="M9.233,9.945c-1.81,0-3.583-1.699-4.138-4.101C4.477,3.157,5.61,0.593,7.625,0.128c2.01-0.465,4.158,1.342,4.779,4.028
			c0,0,0,0,0,0c0.619,2.686-0.515,5.25-2.529,5.715C9.662,9.921,9.447,9.945,9.233,9.945z M8.282,1.053
			c-0.145,0-0.289,0.016-0.433,0.049C6.373,1.444,5.574,3.47,6.07,5.619c0.496,2.148,2.102,3.625,3.58,3.279
			c1.477-0.341,2.275-2.367,1.779-4.516C10.981,2.441,9.629,1.053,8.282,1.053z"/>
	</g>
	<g>
		<path d="M15.5,1H9C8.724,1,8.5,0.776,8.5,0.5S8.724,0,9,0h6.5C15.776,0,16,0.224,16,0.5S15.776,1,15.5,1z"/>
	</g>
	<g>
		<path d="M20,14c-0.276,0-0.5-0.224-0.5-0.5v-6C19.5,7.224,19.724,7,20,7s0.5,0.224,0.5,0.5v6C20.5,13.776,20.276,14,20,14z"/>
	</g>
	<g>
		<path d="M23,11h-6c-0.276,0-0.5-0.224-0.5-0.5S16.724,10,17,10h6c0.276,0,0.5,0.224,0.5,0.5S23.276,11,23,11z"/>
	</g>
</g>
<g>
</g>
<g>
</g>
<g>
</g>
<g>
</g>
<g>
</g>
<g>
</g>
<g>
</g>
<g>
</g>
<g>
</g>
<g>
</g>
<g>
</g>
<g>
</g>
<g>
</g>
<g>
</g>
<g>
</g>
</svg>
