<?xml version="1.0" encoding="UTF-8"?>
<svg fill="#FFFFFF" viewBox="0 0 18 12" version="1.1" xmlns="http://www.w3.org/2000/svg" xmlns:xlink="http://www.w3.org/1999/xlink">
    <!-- Generator: Sketch 48.2 (47327) - http://www.bohemiancoding.com/sketch -->
    <title>ic-sort</title>
    <desc>Created with Sketch.</desc>
    <defs></defs>
    <g id="Artboard" stroke="none" stroke-width="1" fill="none" fill-rule="evenodd" transform="translate(-490.000000, -95.000000)">
        <g id="ic-sort" transform="translate(487.000000, 89.000000)">
            <g id="ic-sort-48px" transform="translate(12.000000, 12.000000) scale(-1, 1) translate(-12.000000, -12.000000) ">
                <path d="M3,18 L9,18 L9,16 L3,16 L3,18 Z M3,6 L3,8 L21,8 L21,6 L3,6 Z M3,13 L15,13 L15,11 L3,11 L3,13 Z" id="Shape" fill="#000000" fill-rule="nonzero"></path>
                <polygon id="Shape" points="0 0 24 0 24 24 0 24"></polygon>
            </g>
        </g>
    </g>
</svg>