<?xml version="1.0" encoding="iso-8859-1"?>
<!-- Generator: Adobe Illustrator 19.0.0, SVG Export Plug-In . SVG Version: 6.00 Build 0)  -->
<svg version="1.1" id="Layer_1" xmlns="http://www.w3.org/2000/svg" xmlns:xlink="http://www.w3.org/1999/xlink" x="0px" y="0px"
	 fill="#FFFFFF" viewBox="0 0 24 24" style="enable-background:new 0 0 24 24;" xml:space="preserve">
<g>
	<g>
		<path d="M21.5,0h-19C1.122,0,0,1.122,0,2.5v19C0,22.878,1.122,24,2.5,24h19c1.378,0,2.5-1.122,2.5-2.5v-19
			C24,1.122,22.878,0,21.5,0z M3,3.501c0-0.065,0.013-0.13,0.038-0.191c0.051-0.122,0.148-0.22,0.271-0.271
			C3.37,3.014,3.435,3.001,3.5,3.001h4c0.276,0,0.5,0.224,0.5,0.5s-0.224,0.5-0.5,0.5H4.707l5.146,5.146
			c0.196,0.195,0.196,0.511,0.001,0.707C9.756,9.952,9.628,10,9.5,10S9.244,9.951,9.146,9.854L4,4.708v2.793
			c0,0.276-0.224,0.5-0.5,0.5S3,7.777,3,7.501V3.501z M9.854,14.854L4.708,20h2.793c0.276,0,0.5,0.224,0.5,0.5S7.777,21,7.501,21h-4
			c-0.065,0-0.13-0.013-0.191-0.038c-0.122-0.051-0.22-0.148-0.271-0.271C3.014,20.63,3.001,20.565,3.001,20.5v-4
			c0-0.276,0.224-0.5,0.5-0.5s0.5,0.224,0.5,0.5v2.793l5.146-5.146c0.195-0.195,0.512-0.195,0.707,0S10.049,14.658,9.854,14.854z
			 M21,20.5c0,0.065-0.013,0.13-0.038,0.191c-0.051,0.122-0.148,0.22-0.271,0.271C20.63,20.987,20.565,21,20.5,21h-4
			c-0.276,0-0.5-0.224-0.5-0.5s0.224-0.5,0.5-0.5h2.793l-5.146-5.146c-0.195-0.195-0.195-0.512,0-0.707s0.512-0.195,0.707,0
			L20,19.293V16.5c0-0.276,0.224-0.5,0.5-0.5s0.5,0.224,0.5,0.5V20.5z M20.5,8C20.224,8,20,7.776,20,7.5V4.707l-5.146,5.146
			c-0.098,0.098-0.226,0.146-0.354,0.146s-0.256-0.049-0.354-0.146c-0.195-0.195-0.195-0.512,0-0.707L19.292,4h-2.793
			c-0.276,0-0.5-0.224-0.5-0.5s0.224-0.5,0.5-0.5h4c0.065,0,0.13,0.013,0.191,0.038c0.122,0.051,0.22,0.148,0.271,0.271
			c0.025,0.061,0.038,0.126,0.038,0.191v4H21C21,7.776,20.776,8,20.5,8z"/>
	</g>
</g>
</svg>
