<?xml version="1.0" encoding="iso-8859-1"?>
<!-- Generator: Adobe Illustrator 19.0.0, SVG Export Plug-In . SVG Version: 6.00 Build 0)  -->
<svg version="1.1" id="Layer_1" xmlns="http://www.w3.org/2000/svg" xmlns:xlink="http://www.w3.org/1999/xlink" x="0px" y="0px"
	 fill="#FFFFFF" viewBox="0 0 24 24" style="enable-background:new 0 0 24 24;" xml:space="preserve">
<path d="M23.5,16c0.276,0,0.5-0.224,0.5-0.5v-12C24,3.224,23.776,3,23.5,3h-23C0.224,3,0,3.224,0,3.5v1c0,0.001,0,0.002,0,0.003
	v9.996c0,0.001,0,0.002,0,0.003V15.5C0,15.776,0.224,16,0.5,16H5v1.001H3.57c-0.838,0-1.615,0.416-2.08,1.113l-1.406,2.109
	c-0.153,0.23-0.091,0.54,0.139,0.693c0.23,0.151,0.54,0.09,0.693-0.139l1.406-2.109C2.601,18.25,3.068,18,3.57,18h16.859
	c0.502,0,0.969,0.25,1.248,0.668l1.406,2.109C23.18,20.922,23.338,21,23.5,21c0.096,0,0.192-0.027,0.276-0.084
	c0.23-0.153,0.292-0.463,0.139-0.693l-1.406-2.109c-0.465-0.697-1.242-1.113-2.08-1.113H19V16H23.5z M12.708,15l5.145-5.145
	c0.195-0.195,0.195-0.512,0-0.707L12.705,4h4.586l5.501,5.501L17.293,15H12.708z M6.708,15l5.145-5.145
	c0.195-0.195,0.195-0.512,0-0.707L6.705,4h4.586l5.501,5.501L11.293,15H6.708z M18.708,15L23,10.708V15H18.708z M23,8.295L18.705,4
	H23V8.295z M1,5.709l3.792,3.792L1,13.293V5.709z M1,14.708l4.853-4.853c0.195-0.195,0.195-0.512,0-0.707L1,4.295V4h4.291
	l5.501,5.501L5.293,15H1V14.708z M18,17.001H6V16h12V17.001z"/>
</svg>
