<?xml version="1.0" encoding="iso-8859-1"?>
<!-- Generator: Adobe Illustrator 19.0.0, SVG Export Plug-In . SVG Version: 6.00 Build 0)  -->
<svg version="1.1" id="Layer_1" xmlns="http://www.w3.org/2000/svg" xmlns:xlink="http://www.w3.org/1999/xlink" x="0px" y="0px"
	 fill="#FFFFFF" viewBox="0 0 24 24" style="enable-background:new 0 0 24 24;" xml:space="preserve">
<g>
	<g>
		<path d="M19.5,0h-15C2.019,0,0,2.019,0,4.5v19c0,0.21,0.132,0.398,0.33,0.47C0.385,23.99,0.443,24,0.5,24
			c0.146,0,0.287-0.063,0.384-0.18L5.734,18H19.5c2.481,0,4.5-2.019,4.5-4.5v-9C24,2.019,21.981,0,19.5,0z M23,13.5
			c0,1.93-1.57,3.5-3.5,3.5h-14c-0.148,0-0.289,0.066-0.384,0.18L1,22.119V4.5C1,2.57,2.57,1,4.5,1h15C21.43,1,23,2.57,23,4.5V13.5z
			"/>
	</g>
</g>
</svg>
