<?xml version="1.0" encoding="iso-8859-1"?>
<!-- Generator: Adobe Illustrator 19.0.0, SVG Export Plug-In . SVG Version: 6.00 Build 0)  -->
<svg version="1.1" id="Layer_1" xmlns="http://www.w3.org/2000/svg" xmlns:xlink="http://www.w3.org/1999/xlink" x="0px" y="0px"
	 fill="#FFFFFF" viewBox="0 0 24 24" style="enable-background:new 0 0 24 24;" xml:space="preserve">
<g>
	<g>
		<path d="M12,5c-0.827,0-1.5-0.673-1.5-1.5S11.173,2,12,2s1.5,0.673,1.5,1.5S12.827,5,12,5z M12,3c-0.276,0-0.5,0.224-0.5,0.5
			S11.724,4,12,4s0.5-0.224,0.5-0.5S12.276,3,12,3z"/>
	</g>
	<g>
		<path d="M12,9c-0.827,0-1.5-0.673-1.5-1.5S11.173,6,12,6s1.5,0.673,1.5,1.5S12.827,9,12,9z M12,7c-0.276,0-0.5,0.224-0.5,0.5
			S11.724,8,12,8s0.5-0.224,0.5-0.5S12.276,7,12,7z"/>
	</g>
	<g>
		<path d="M12,13c-0.827,0-1.5-0.673-1.5-1.5S11.173,10,12,10s1.5,0.673,1.5,1.5S12.827,13,12,13z M12,11
			c-0.276,0-0.5,0.224-0.5,0.5S11.724,12,12,12s0.5-0.224,0.5-0.5S12.276,11,12,11z"/>
	</g>
	<g>
		<path d="M14,15h-4c-0.827,0-1.5-0.673-1.5-1.5v-12C8.5,0.673,9.173,0,10,0h4c0.827,0,1.5,0.673,1.5,1.5v12
			C15.5,14.327,14.827,15,14,15z M10,1C9.724,1,9.5,1.224,9.5,1.5v12c0,0.276,0.224,0.5,0.5,0.5h4c0.276,0,0.5-0.224,0.5-0.5v-12
			C14.5,1.224,14.276,1,14,1H10z"/>
	</g>
	<g>
		<path d="M9,5C8.724,5,8.5,4.776,8.5,4.5C8.45,4.432,8.055,4.186,7.819,4.039C7.201,3.654,6.5,3.218,6.5,2.5C6.5,2.224,6.724,2,7,2
			h2c0.276,0,0.5,0.224,0.5,0.5S9.276,3,9,3H8.049c0.114,0.075,0.222,0.143,0.299,0.19C8.915,3.543,9.5,3.908,9.5,4.5
			C9.5,4.776,9.276,5,9,5z"/>
	</g>
	<g>
		<path d="M9,9C8.724,9,8.5,8.776,8.5,8.5C8.45,8.432,8.055,8.186,7.819,8.039C7.201,7.654,6.5,7.218,6.5,6.5C6.5,6.224,6.724,6,7,6
			h2c0.276,0,0.5,0.224,0.5,0.5S9.276,7,9,7H8.049c0.114,0.075,0.222,0.143,0.299,0.19C8.915,7.543,9.5,7.908,9.5,8.5
			C9.5,8.776,9.276,9,9,9z"/>
	</g>
	<g>
		<path d="M9,13c-0.276,0-0.5-0.224-0.5-0.5c-0.05-0.068-0.445-0.314-0.681-0.461C7.201,11.654,6.5,11.218,6.5,10.5
			C6.5,10.224,6.724,10,7,10h2c0.276,0,0.5,0.224,0.5,0.5S9.276,11,9,11H8.049c0.114,0.075,0.222,0.143,0.299,0.19
			C8.915,11.543,9.5,11.908,9.5,12.5C9.5,12.776,9.276,13,9,13z"/>
	</g>
	<g>
		<path d="M14.996,5.026c-0.276,0-0.496-0.25-0.496-0.526c0-0.592,0.585-0.957,1.152-1.31c0.077-0.048,0.185-0.115,0.299-0.19H15
			c-0.276,0-0.5-0.224-0.5-0.5S14.724,2,15,2h2c0.276,0,0.5,0.224,0.5,0.5c0,0.718-0.701,1.154-1.319,1.539
			c-0.236,0.147-0.631,0.393-0.69,0.512C15.491,4.828,15.271,5.026,14.996,5.026z"/>
	</g>
	<g>
		<path d="M14.996,9.026c-0.276,0-0.496-0.25-0.496-0.526c0-0.592,0.585-0.957,1.152-1.31c0.077-0.048,0.185-0.115,0.299-0.19H15
			c-0.276,0-0.5-0.224-0.5-0.5S14.724,6,15,6h2c0.276,0,0.5,0.224,0.5,0.5c0,0.718-0.701,1.154-1.319,1.539
			c-0.236,0.147-0.631,0.393-0.69,0.512C15.491,8.828,15.271,9.026,14.996,9.026z"/>
	</g>
	<g>
		<path d="M14.996,13.026c-0.276,0-0.496-0.25-0.496-0.526c0-0.592,0.585-0.957,1.152-1.31c0.077-0.048,0.185-0.115,0.299-0.19H15
			c-0.276,0-0.5-0.224-0.5-0.5S14.724,10,15,10h2c0.276,0,0.5,0.224,0.5,0.5c0,0.718-0.701,1.154-1.319,1.539
			c-0.236,0.147-0.631,0.393-0.69,0.512C15.491,12.828,15.271,13.026,14.996,13.026z"/>
	</g>
	<g>
		<path d="M12,24c-0.276,0-0.5-0.224-0.5-0.5v-9c0-0.276,0.224-0.5,0.5-0.5s0.5,0.224,0.5,0.5v9C12.5,23.776,12.276,24,12,24z"/>
	</g>
	<g>
		<path d="M13,24h-2c-0.276,0-0.5-0.224-0.5-0.5S10.724,23,11,23h2c0.276,0,0.5,0.224,0.5,0.5S13.276,24,13,24z"/>
	</g>
</g>
<g>
</g>
<g>
</g>
<g>
</g>
<g>
</g>
<g>
</g>
<g>
</g>
<g>
</g>
<g>
</g>
<g>
</g>
<g>
</g>
<g>
</g>
<g>
</g>
<g>
</g>
<g>
</g>
<g>
</g>
</svg>
