<?xml version="1.0" encoding="iso-8859-1"?>
<!-- Generator: Adobe Illustrator 19.0.0, SVG Export Plug-In . SVG Version: 6.00 Build 0)  -->
<svg version="1.1" id="Layer_1" xmlns="http://www.w3.org/2000/svg" xmlns:xlink="http://www.w3.org/1999/xlink" x="0px" y="0px"
	 fill="#FFFFFF" viewBox="0 0 24 24" style="enable-background:new 0 0 24 24;" xml:space="preserve">
<g id="XMLID_104_">
	<g id="XMLID_101_">
		<path id="XMLID_742_" d="M8,11H3c-0.276,0-0.5-0.224-0.5-0.5v-4C2.5,6.224,2.724,6,3,6h5c0.276,0,0.5,0.224,0.5,0.5v4
			C8.5,10.776,8.276,11,8,11z M3.5,10h4V7h-4V10z"/>
	</g>
	<g id="XMLID_102_">
		<path id="XMLID_739_" d="M12,13h-2c-1.378,0-2.5-1.122-2.5-2.5v-4C7.5,5.122,8.622,4,10,4h2c1.378,0,2.5,1.122,2.5,2.5v4
			C14.5,11.878,13.378,13,12,13z M10,5C9.173,5,8.5,5.673,8.5,6.5v4c0,0.827,0.673,1.5,1.5,1.5h2c0.827,0,1.5-0.673,1.5-1.5v-4
			C13.5,5.673,12.827,5,12,5H10z"/>
	</g>
	<g id="XMLID_97_">
		<path id="XMLID_736_" d="M21,15h-4c-0.276,0-0.5-0.224-0.5-0.5v-2c0-0.827-0.673-1.5-1.5-1.5h-1c-0.276,0-0.5-0.224-0.5-0.5v-4
			C13.5,6.224,13.724,6,14,6h2c3.033,0,5.5,2.467,5.5,5.5v3C21.5,14.776,21.276,15,21,15z M17.5,14h3v-2.5C20.5,9.019,18.481,7,16,7
			h-1.5v3H15c1.378,0,2.5,1.122,2.5,2.5V14z"/>
	</g>
	<g id="XMLID_103_">
		<path id="XMLID_733_" d="M19,24c-1.378,0-2.5-1.122-2.5-2.5c0-1.2,1.74-3.779,2.088-4.284c0.188-0.271,0.636-0.271,0.823,0
			C19.76,17.721,21.5,20.3,21.5,21.5C21.5,22.878,20.378,24,19,24z M19,18.404c-0.72,1.125-1.5,2.55-1.5,3.096
			c0,0.827,0.673,1.5,1.5,1.5s1.5-0.673,1.5-1.5C20.5,20.953,19.72,19.528,19,18.404z"/>
	</g>
	<g id="XMLID_106_">
		<path id="XMLID_730_" d="M14,3c-0.37,0-1.885-0.176-3-0.457C9.885,2.824,8.37,3,8,3C7.173,3,6.5,2.327,6.5,1.5S7.173,0,8,0
			c0.37,0,1.885,0.176,3,0.457C12.115,0.176,13.63,0,14,0c0.827,0,1.5,0.673,1.5,1.5S14.827,3,14,3z M11,1.526
			c0.043,0,0.087,0.006,0.129,0.017C12.167,1.821,13.701,2,14,2c0.276,0,0.5-0.224,0.5-0.5S14.276,1,14,1
			c-0.299,0-1.833,0.179-2.871,0.457c-0.084,0.022-0.174,0.022-0.258,0C9.833,1.179,8.299,1,8,1C7.724,1,7.5,1.224,7.5,1.5
			S7.724,2,8,2c0.299,0,1.833-0.179,2.871-0.457C10.913,1.532,10.957,1.526,11,1.526z"/>
	</g>
	<g id="XMLID_105_">
		<path id="XMLID_729_" d="M11,5c-0.276,0-0.5-0.224-0.5-0.5V2.026c0-0.276,0.224-0.5,0.5-0.5s0.5,0.224,0.5,0.5V4.5
			C11.5,4.776,11.276,5,11,5z"/>
	</g>
</g>
<g>
</g>
<g>
</g>
<g>
</g>
<g>
</g>
<g>
</g>
<g>
</g>
<g>
</g>
<g>
</g>
<g>
</g>
<g>
</g>
<g>
</g>
<g>
</g>
<g>
</g>
<g>
</g>
<g>
</g>
</svg>
