<?xml version="1.0" encoding="UTF-8"?>
<svg width="96px" height="96px" viewBox="0 0 96 96" version="1.1" xmlns="http://www.w3.org/2000/svg" xmlns:xlink="http://www.w3.org/1999/xlink">
    <!-- Generator: Sketch 48.2 (47327) - http://www.bohemiancoding.com/sketch -->
    <title>user-1-fill</title>
    <desc>Created with Sketch.</desc>
    <defs></defs>
    <g id="Artboard-2" stroke="none" stroke-width="1" fill="none" fill-rule="evenodd" transform="translate(-12.000000, -12.000000)">
        <g id="user-1-fill" transform="translate(12.000000, 12.000000)" fill="#F0F0F0" fill-rule="nonzero">
            <path d="M48,0 C21.5332174,0 0,21.5332174 0,48 C0,74.4667826 21.5332174,96 48,96 C74.4667826,96 96,74.4667826 96,48 C96,21.5332174 74.4667826,0 48,0 Z M48,12.5217391 C56.0556522,12.5217391 62.6086957,19.0747826 62.6086957,27.1304348 C62.6086957,35.186087 56.0556522,41.7391304 48,41.7391304 C39.9443478,41.7391304 33.3913043,35.186087 33.3913043,27.1304348 C33.3913043,19.0747826 39.9443478,12.5217391 48,12.5217391 Z M73.0434783,75.1304348 L22.9565217,75.1304348 C21.8045217,75.1304348 20.8695652,74.1954783 20.8695652,73.0434783 C20.8695652,58.0841739 33.0406957,45.9130435 48,45.9130435 C62.9593043,45.9130435 75.1304348,58.0841739 75.1304348,73.0434783 C75.1304348,74.1954783 74.1954783,75.1304348 73.0434783,75.1304348 Z" id="Shape"></path>
        </g>
    </g>
</svg>